actor Tree10 30503
{
Radius 14
Height 40
scale 2
+SoLID
States
{
Spawn:
PLT1 A 1
Loop
}
}



actor Tree11 30504
{
Radius 14
Height 40
scale 2
+SoLID
States
{
Spawn:
PLT2 A 1
Loop
}
}
